{
	"info": {
		"_postman_id": "d636ebc3-bff5-46d1-8a0f-04e840bf8ed4",
		"name": "TP REST - tests des méthodes",
		"schema": "https://schema.getpostman.com/json/collection/v2.1.0/collection.json"
	},
	"item": [
		{
			"name": "message",
			"item": [
				{
					"name": "GET message réussie",
					"request": {
						"method": "GET",
						"header": [],
						"body": {
							"mode": "raw",
							"raw": ""
						},
						"url": {
							"raw": ""
						}
					},
					"response": []
				},
				{
					"name": "GET message échouée",
					"request": {
						"method": "GET",
						"header": [],
						"body": {
							"mode": "raw",
							"raw": ""
						},
						"url": {
							"raw": ""
						}
					},
					"response": []
				},
				{
					"name": "PUT message réussie",
					"request": {
						"method": "GET",
						"header": [],
						"body": {
							"mode": "raw",
							"raw": ""
						},
						"url": {
							"raw": ""
						}
					},
					"response": []
				},
				{
					"name": "PUT message échouée 404",
					"request": {
						"method": "GET",
						"header": [],
						"body": {
							"mode": "raw",
							"raw": ""
						},
						"url": {
							"raw": ""
						}
					},
					"response": []
				},
				{
					"name": "DELETE message réussie",
					"request": {
						"method": "GET",
						"header": [],
						"body": {
							"mode": "raw",
							"raw": ""
						},
						"url": {
							"raw": ""
						}
					},
					"response": []
				},
				{
					"name": "DELETE message échouée",
					"request": {
						"method": "GET",
						"header": [],
						"body": {
							"mode": "raw",
							"raw": ""
						},
						"url": {
							"raw": ""
						}
					},
					"response": []
				},
				{
					"name": "POST message réussie",
					"request": {
						"method": "GET",
						"header": [],
						"body": {
							"mode": "raw",
							"raw": ""
						},
						"url": {
							"raw": ""
						}
					},
					"response": []
				},
				{
					"name": "POST message échouée 404",
					"request": {
						"method": "GET",
						"header": [],
						"body": {
							"mode": "raw",
							"raw": ""
						},
						"url": {
							"raw": ""
						}
					},
					"response": []
				},
				{
					"name": "GET messages",
					"request": {
						"method": "GET",
						"header": [],
						"body": {
							"mode": "raw",
							"raw": ""
						},
						"url": {
							"raw": ""
						}
					},
					"response": []
				}
			]
		},
		{
			"name": "user",
			"item": [
				{
					"name": "GET user réussie",
					"request": {
						"method": "GET",
						"header": [],
						"body": {
							"mode": "raw",
							"raw": ""
						},
						"url": {
							"raw": ""
						}
					},
					"response": []
				},
				{
					"name": "GET user échouée",
					"request": {
						"method": "GET",
						"header": [],
						"body": {
							"mode": "raw",
							"raw": ""
						},
						"url": {
							"raw": ""
						}
					},
					"response": []
				},
				{
					"name": "PUT user réussie",
					"request": {
						"method": "GET",
						"header": [],
						"body": {
							"mode": "raw",
							"raw": ""
						},
						"url": {
							"raw": ""
						}
					},
					"response": []
				},
				{
					"name": "PUT user échouée 404",
					"request": {
						"method": "GET",
						"header": [],
						"body": {
							"mode": "raw",
							"raw": ""
						},
						"url": {
							"raw": ""
						}
					},
					"response": []
				},
				{
					"name": "DELETE user échouée 404",
					"request": {
						"method": "GET",
						"header": [],
						"body": {
							"mode": "raw",
							"raw": ""
						},
						"url": {
							"raw": ""
						}
					},
					"response": []
				},
				{
					"name": "POST user réussie",
					"request": {
						"method": "GET",
						"header": [],
						"body": {
							"mode": "raw",
							"raw": ""
						},
						"url": {
							"raw": ""
						}
					},
					"response": []
				},
				{
					"name": "POST user échouée 400",
					"request": {
						"method": "GET",
						"header": [],
						"body": {
							"mode": "raw",
							"raw": ""
						},
						"url": {
							"raw": ""
						}
					},
					"response": []
				},
				{
					"name": "GET users réussie",
					"request": {
						"method": "GET",
						"header": [],
						"body": {
							"mode": "raw",
							"raw": ""
						},
						"url": {
							"raw": ""
						}
					},
					"response": []
				},
				{
					"name": "DELETE user réussie",
					"request": {
						"method": "GET",
						"header": [],
						"body": {
							"mode": "raw",
							"raw": ""
						},
						"url": {
							"raw": ""
						}
					},
					"response": []
				}
			]
		},
		{
			"name": "messageToUser",
			"item": [
				{
					"name": "POST réussie",
					"request": {
						"method": "GET",
						"header": [],
						"body": {
							"mode": "raw",
							"raw": ""
						},
						"url": {
							"raw": ""
						}
					},
					"response": []
				},
				{
					"name": "POST échouée 1",
					"request": {
						"method": "GET",
						"header": [],
						"body": {
							"mode": "raw",
							"raw": ""
						},
						"url": {
							"raw": ""
						}
					},
					"response": []
				},
				{
					"name": "POST échouée 2",
					"request": {
						"method": "GET",
						"header": [],
						"body": {
							"mode": "raw",
							"raw": ""
						},
						"url": {
							"raw": ""
						}
					},
					"response": []
				},
				{
					"name": "POST échouée 3",
					"request": {
						"method": "GET",
						"header": [],
						"body": {
							"mode": "raw",
							"raw": ""
						},
						"url": {
							"raw": ""
						}
					},
					"response": []
				}
			]
		},
		{
			"name": "messageToGroup",
			"item": [
				{
					"name": "POST réussie",
					"request": {
						"method": "GET",
						"header": [],
						"body": {
							"mode": "raw",
							"raw": ""
						},
						"url": {
							"raw": ""
						}
					},
					"response": []
				},
				{
					"name": "POST échouée 1",
					"request": {
						"method": "GET",
						"header": [],
						"body": {
							"mode": "raw",
							"raw": ""
						},
						"url": {
							"raw": ""
						}
					},
					"response": []
				},
				{
					"name": "POST échouée 2",
					"request": {
						"method": "GET",
						"header": [],
						"body": {
							"mode": "raw",
							"raw": ""
						},
						"url": {
							"raw": ""
						}
					},
					"response": []
				},
				{
					"name": "POST échouée 3",
					"request": {
						"method": "GET",
						"header": [],
						"body": {
							"mode": "raw",
							"raw": ""
						},
						"url": {
							"raw": ""
						}
					},
					"response": []
				}
			]
		}
	]
}